verdiLog/novas_sim.log
Invoking simulator...

./simv -sml=verdi +UVM_VERDI_TRACE=UVM_AWARE +fsdb+gate=off -ucli2Proc -ucli
debImport "-i" "-simflow" "-dbdir" "./simv.daidir"
*Verdi* Loading libsscore_vcs202206.so

*Verdi* : Enable RPC Server(31013)

srcTBInvokeSim
Chronologic VCS simulator copyright 1991-2022
Contains Synopsys proprietary information.
Compiler version T-2022.06-SP2_Full64; Runtime version T-2022.06-SP2_Full64;  May  2 15:11 2026
Verdi>fsdbDumpvars 0 "top.clk"  +all +trace_process
*Verdi* : Dumping the signal (top.clk).
Verdi>fsdbDumpvars 1 "top.mem_bus"  +all +trace_process;fsdbDumpflush 

*Verdi* : Begin traversing the scope (top.mem_bus), layer (1).
*Verdi* : Enable +trace_process and +all dumping.
*Verdi* : End of traversing.
*Verdi* : Flush all FSDB Files at 0 ps.

Verdi>run
[250000] Generated: addr=a13c data_in=7d expected=7d
[250000] Generated: addr=78f7 data_in=a6 expected=a6
[250000] Generated: addr=a215 data_in=7d expected=7d
[250000] Generated: addr=ccaa data_in=c4 expected=1c4
[250000] Generated: addr=4a88 data_in=f1 expected=1f1
[250000] Generated: addr=db8c data_in=1a expected=11a
[250000] Generated: addr=7ba2 data_in=f0 expected=f0
[250000] Generated: addr=cc12 data_in=f4 expected=1f4
[250000] Generated: addr=8088 data_in=1 expected=101
[250000] Generated: addr=5ad9 data_in=4f expected=14f
[250000] Generated: addr=5359 data_in=43 expected=143
[250000] Generated: addr=e6fd data_in=ea expected=1ea
[250000] Generated: addr=c4e1 data_in=97 expected=197
[250000] Generated: addr=1499 data_in=49 expected=149
[250000] Generated: addr=631a data_in=ce expected=1ce
[250000] Generated: addr=1a5 data_in=17 expected=17
[250000] Generated: addr=7a96 data_in=e expected=10e
[250000] Generated: addr=f262 data_in=88 expected=88
[250000] Generated: addr=4a26 data_in=ee expected=ee
[250000] Generated: addr=c783 data_in=f expected=f
[14250000] data_out = 7d
[14250000] PASS : addr=a13c expected=7d actual=7d
[14250000] data_out = a6
[14250000] PASS : addr=78f7 expected=a6 actual=a6
[14250000] data_out = 7d
[14250000] PASS : addr=a215 expected=7d actual=7d
[14250000] data_out = 1c4
[14250000] PASS : addr=ccaa expected=1c4 actual=1c4
[14250000] data_out = 1f1
[14250000] PASS : addr=4a88 expected=1f1 actual=1f1
[14250000] data_out = 11a
[14250000] PASS : addr=db8c expected=11a actual=11a
[14250000] data_out = f0
[14250000] PASS : addr=7ba2 expected=f0 actual=f0
[14250000] data_out = 1f4
[14250000] PASS : addr=cc12 expected=1f4 actual=1f4
[14250000] data_out = 101
[14250000] PASS : addr=8088 expected=101 actual=101
[14250000] data_out = 14f
[14250000] PASS : addr=5ad9 expected=14f actual=14f
[14250000] data_out = 143
[14250000] PASS : addr=5359 expected=143 actual=143
[14250000] data_out = 1ea
[14250000] PASS : addr=e6fd expected=1ea actual=1ea
[14250000] data_out = 197
[14250000] PASS : addr=c4e1 expected=197 actual=197
[14250000] data_out = 149
[14250000] PASS : addr=1499 expected=149 actual=149
[14250000] data_out = 1ce
[14250000] PASS : addr=631a expected=1ce actual=1ce
[14250000] data_out = 17
[14250000] PASS : addr=1a5 expected=17 actual=17
[14250000] data_out = 10e
[14250000] PASS : addr=7a96 expected=10e actual=10e
[14250000] data_out = 88
[14250000] PASS : addr=f262 expected=88 actual=88
[14250000] data_out = ee
[14250000] PASS : addr=4a26 expected=ee actual=ee
[14250000] data_out = f
[14250000] PASS : addr=c783 expected=f actual=f
[14250000] Total errors = 0
$finish called from file "test.sv", line 99.
$finish at simulation time             14350000
Simulation complete, time is 14350000 ps.
test.sv, 99 :     $finish;
           V C S   S i m u l a t i o n   R e p o r t 
Time: 14350000 ps
CPU Time:      0.200 seconds;       Data structure size:   0.0Mb
Sat May  2 15:28:27 2026
debExit
